{
	"channelList": [
		{
			"testType": "영상복호화(h264) 1-1",
			"channelUrl": "skbiptv://239.1.1.1:8208?ch=1000&ci=0&cp=0&pp=201&vp=201&vc=27&ap=301&ac=15&lf=1",
			"decription": ""
		},
		{
			"testType": "영상복호화(h264) 1-2",
			"channelUrl": "skbiptv://239.1.1.1:8208?ch=1000&ci=0&cp=0&pp=201&vp=201&vc=27&ap=301&ac=15&lf=1"
		},
		{
			"testType": "영상복호화(h264) 1-3",
			"channelUrl": "skbiptv://239.1.1.1:8208?ch=1000&ci=0&cp=0&pp=201&vp=201&vc=27&ap=301&ac=15&lf=1"
		},
		{
			"testType": "영상복호화(h264) 1-4",
			"channelUrl": "skbiptv://239.1.1.1:8208?ch=1000&ci=0&cp=0&pp=201&vp=201&vc=27&ap=301&ac=15&lf=1"
		},
		{
			"testType": "영상복호화(h265) 2-1",
			"channelUrl": "skbiptv://239.1.1.1:8208?ch=1000&ci=0&cp=0&pp=201&vp=201&vc=36&ap=301&ac=129&lf=1"
		},
		{
			"testType": "영상복호화(h265) 2-2",
			"channelUrl": "skbiptv://239.1.1.1:8208?ch=1000&ci=0&cp=0&pp=201&vp=257&vc=36&ap=258&ac=129&lf=1"
		},
		{
			"testType": "음성복호화(AAC) 1-1",
			"channelUrl": "skbiptv://239.1.1.1:8208?ch=1000&ci=0&cp=0&pp=201&vp=201&vc=27&ap=301&ac=15&lf=1"
		},
		{
			"testType": "음성복호화(AAC) 1-2",
			"channelUrl": "skbiptv://239.1.1.1:8208?ch=1000&ci=0&cp=0&pp=201&vp=201&vc=27&ap=301&ac=15&lf=1"
		},
		{
			"testType": "음성복호화(AAC) 1-3",
			"channelUrl": "skbiptv://239.1.1.1:8208?ch=1000&ci=0&cp=0&pp=201&vp=201&vc=27&ap=301&ac=15&lf=1"
		},
		{
			"testType": "음성복호화(AAC) 1-4",
			"channelUrl": "skbiptv://239.1.1.1:8208?ch=1000&ci=0&cp=0&pp=201&vp=201&vc=27&ap=301&ac=15&lf=1"
		},
		{
			"testType": "음성복호화(AAC) 1-5",
			"channelUrl": "skbiptv://239.1.1.1:8208?ch=1000&ci=0&cp=0&pp=201&vp=201&vc=27&ap=301&ac=15&lf=1"
		},
		{
			"testType": "음성복호화(AC3) 2-1",
			"channelUrl": "skbiptv://239.1.1.1:8208?ch=1000&ci=0&cp=0&pp=201&vp=201&vc=27&ap=301&ac=129&lf=1"
		},
		{
			"testType": "음성복호화(AC3) 2-2",
			"channelUrl": "skbiptv://239.1.1.1:8208?ch=1000&ci=0&cp=0&pp=201&vp=201&vc=27&ap=301&ac=129&lf=1"
		},
		{
			"testType": "음성복호화(AC3) 2-3",
			"channelUrl": "skbiptv://239.1.1.1:8208?ch=1000&ci=0&cp=0&pp=201&vp=201&vc=27&ap=301&ac=129&lf=1"
		},
		{
			"testType": "음성복호화(AC3) 2-4",
			"channelUrl": "skbiptv://239.1.1.1:8208?ch=1000&ci=0&cp=0&pp=201&vp=201&vc=27&ap=301&ac=129&lf=1"
		},
		{
			"testType": "음성복호화(AC3) 2-5",
			"channelUrl": "skbiptv://239.1.1.1:8208?ch=1000&ci=0&cp=0&pp=201&vp=201&vc=27&ap=301&ac=129&lf=1"
		},
		{
			"testType": "역다중화 1-1(kor)",
			"channelUrl": "skbiptv://239.1.1.1:8208?ch=1000&ci=0&cp=0&pp=201&vp=201&vc=27&ap=301&ac=15&lf=1"
		},
		{
			"testType": "역다중화 1-1(eng)",
			"channelUrl": "skbiptv://239.1.1.1:8208?ch=1000&ci=0&cp=0&pp=201&vp=201&vc=27&ap=302&ac=15&lf=1"
		},
		{
			"testType": "역다중화 1-2",
			"channelUrl": "skbiptv://239.1.1.1:8208?ch=1000&ci=0&cp=0&pp=201&vp=201&vc=27&ap=301&ac=15&lf=1"
		},
		{
			"testType": "역다중화 1-2 (api:302)",
			"channelUrl": "skbiptv://239.1.1.1:8208?ch=1000&ci=0&cp=0&pp=201&vp=201&vc=27&ap=301&ac=15&lf=1"
		},
		{
			"testType": "역다중화 1-3",
			"channelUrl": "skbiptv://239.1.1.1:8208?ch=1000&ci=0&cp=0&pp=201&vp=201&vc=27&ap=301&ac=15&lf=1"
		},
		{
			"testType": "역다중화 1-4",
			"channelUrl": "skbiptv://239.1.1.1:8208?ch=1000&ci=0&cp=0&pp=201&vp=201&vc=27&ap=301&ac=15&lf=1"
		},
		{
			"testType": "역다중화 1-5",
			"channelUrl": "skbiptv://239.1.1.1:8208?ch=1000&ci=0&cp=0&pp=201&vp=201&vc=27&ap=301&ac=15&lf=1"
		},
		{
			"testType": "역다중화 1-6",
			"channelUrl": "skbiptv://239.1.1.1:8208?ch=1000&ci=0&cp=0&pp=201&vp=201&vc=27&ap=301&ac=15&lf=1"
		},
		{
			"testType": "역다중화 1-7",
			"channelUrl": "skbiptv://239.1.1.1:8208?ch=1000&ci=0&cp=0&pp=201&vp=201&vc=27&ap=301&ac=15&lf=1"
		},
		{
			"testType": "기타 1-1",
			"channelUrl": "skbiptv://239.1.1.1:8208?ch=1000&ci=0&cp=0&pp=201&vp=200&vc=27&ap=201&ac=15&lf=1"
		},
		{
			"testType": "기타 1-2",
			"channelUrl": "skbiptv://239.1.1.1:8208?ch=1000&ci=0&cp=0&pp=201&vp=201&vc=27&ap=302&ac=15&lf=1"
		},
		{
			"testType": "기타 1-3",
			"channelUrl": "skbiptv://239.1.1.1:8208?ch=1000&ci=0&cp=0&pp=201&vp=201&vc=27&ap=301&ac=15&lf=1"
		},
		{
			"testType": "기타 1-4",
			"channelUrl": "skbiptv://239.1.1.1:8208?ch=1000&ci=0&cp=0&pp=201&vp=201&vc=27&ap=301&ac=15&lf=1"
		}
	]
}